commit 4d309616be45b8416f3192deb29c711cd2f3fc04
Author: Albert <albertsliang@yahoo.com>
Date:   Sun Mar 24 18:15:40 2019 -0500

    modified About.html to reflect image resizing

commit 0783a746786c465852881c52adf28a19d85e172b
Merge: 89906e6 35fe391
Author: Albert <albertsliang@yahoo.com>
Date:   Sun Mar 24 17:57:26 2019 -0500

    Merge branch 'master' of https://gitlab.com/jat4625/cs329e-idb

commit 35fe39182f639276c6c327a541c3624d1e24a1f6
Author: jat4625 <jatorr98@gmail.com>
Date:   Sun Mar 24 17:52:48 2019 -0500

    added more sort functionality to shelter page

commit 89906e61c9284ba10d9ec82fc9d599328464c69b
Author: Albert <albertsliang@yahoo.com>
Date:   Sun Mar 24 17:37:02 2019 -0500

    resized images for dog_coco page and about page

commit 882218bd824b99f5746ddfcaa5d67db349f284cb
Author: jat4625 <jatorr98@gmail.com>
Date:   Sun Mar 24 16:56:14 2019 -0500

    expanded sort functionality in breeds page

commit 36a6786952532ce64d285724b6ebcd9414d5e6d0
Author: Jungwoo Cho <chrischo310@gmail.com>
Date:   Sun Mar 24 16:40:41 2019 -0500

    Final version of abouit page

commit 6daa28b162e5db0cd37ca52a38d38dc94a8d64d4
Author: jat4625 <jatorr98@gmail.com>
Date:   Sun Mar 24 11:24:09 2019 -0500

    added more search functionality to dogs page, breed page is broken but will be fixed

commit 86dde7296fa104ac5100b20a9ade2cff701cfc7a
Author: Albert <albertsliang@yahoo.com>
Date:   Sat Mar 23 23:56:55 2019 -0500

    resized images for better page consistency

commit 091b6a77a31ded66fc0996f850b1975311cb3470
Merge: b3b72cd 93b6118
Author: Albert <albertsliang@yahoo.com>
Date:   Sat Mar 23 18:52:40 2019 -0500

    second attempt to commit sort button

commit b3b72cd7754f16a31c256551674a4951abab1ea6
Author: Albert <albertsliang@yahoo.com>
Date:   Sat Mar 23 17:23:43 2019 -0500

    Added sort button to dogs, breeds, and shelters pages

commit 93b611854e8ee256fb81d90ae0db64fb52621ba9
Author: jat4625 <jatorr98@gmail.com>
Date:   Thu Mar 21 18:01:27 2019 -0500

    Added links to external sources

commit cbceae9c304a6b79db0ca773c8db739abb3db890
Author: jat4625 <jatorr98@gmail.com>
Date:   Thu Mar 21 17:28:06 2019 -0500

    fleshed out the homepage

commit c182c2ab8a86a8d02032f3a085f70d25f3ed78c5
Author: jat4625 <jatorr98@gmail.com>
Date:   Thu Mar 21 16:24:02 2019 -0500

    finished splashpage

commit 42e10980d7d016259bd3767376649ba76e4a0459
Author: jat4625 <jatorr98@gmail.com>
Date:   Thu Mar 21 15:35:49 2019 -0500

    Interconnected each related page

commit 0270568cffc2895fa0547879bb1a84ecf210ca47
Merge: 23e4a04 e9b8c82
Author: Albert <albertsliang@yahoo.com>
Date:   Wed Mar 20 15:03:35 2019 -0500

    Merge branch 'master' of https://gitlab.com/jat4625/cs329e-idb

commit 23e4a04463414ffb084c563eb78af36007c017db
Author: Albert <albertsliang@yahoo.com>
Date:   Wed Mar 20 14:52:11 2019 -0500

    populated shelters pages

commit e9b8c82631c01664ea443e5c0f931e5a96455c11
Merge: 626adb6 75f3d6a
Author: Jose Torres <jatorr98@gmail.com>
Date:   Wed Mar 20 17:55:28 2019 +0000

    Merge branch 'dev' into 'master'
    
    Dev
    
    See merge request jat4625/cs329e-idb!3

commit 75f3d6a49328a03607362216b394c355fad34680
Author: jat4625 <jatorr98@gmail.com>
Date:   Wed Mar 20 12:50:36 2019 -0500

    refactored card based pages for better scaling

commit 0c02043a8181d741654677a35964e868ffb6260e
Author: jat4625 <jatorr98@gmail.com>
Date:   Tue Mar 19 12:18:06 2019 -0500

    created pages for shelters and dogs

commit 692bf8775179ffbc0fd72a8b25a7f4ffba341deb
Author: Sean Yu <seantyu@utexas.edu>
Date:   Tue Mar 19 02:39:49 2019 -0500

    deleted unnecessary inline styling

commit c90ac89e352837aa5241dc650bc340d713fa5f1e
Author: Sean Yu <seantyu@utexas.edu>
Date:   Tue Mar 19 02:38:34 2019 -0500

    Added a carousel to index, along with some images

commit 8f186d7611f901e2b412a69975b4adc5ad6eb339
Author: Sean Yu <seantyu@utexas.edu>
Date:   Tue Mar 19 02:14:08 2019 -0500

    forgot to push change to base.html

commit 21bd8333273af0e20022b3a6eb6db4c7be815f47
Author: Sean Yu <seantyu@utexas.edu>
Date:   Tue Mar 19 01:33:32 2019 -0500

    data-centric css no longer applied globally

commit 626adb6909bf99a9e568bcbc16e46046c9a1f916
Author: Sean Yu <seantyu@utexas.edu>
Date:   Tue Mar 19 05:35:17 2019 +0000

    Update .gitignore

commit c47ea7e4430e95bece42e8db0cd1ccc0072a3207
Author: Sean Yu <seantyu@utexas.edu>
Date:   Tue Mar 19 00:33:51 2019 -0500

    removed the now ignored directory .vscode

commit c39ba3b200398fcc016b48290ba315a43294cfe9
Merge: 559ae46 978df26
Author: jat4625 <jatorr98@gmail.com>
Date:   Mon Mar 18 22:39:50 2019 -0500

    Merge branch 'dev' of https://gitlab.com/jat4625/cs329e-idb into dev

commit 559ae465c22d705d0d9d0ee251c4fb1a4ef2ff5c
Author: jat4625 <jatorr98@gmail.com>
Date:   Mon Mar 18 22:38:39 2019 -0500

    added to shelters and dogs pages

commit 189479a33e5ec067bc2fdb743f29bed08a7a7afb
Merge: c11a088 978df26
Author: Jose Torres <jatorr98@gmail.com>
Date:   Tue Mar 19 01:53:41 2019 +0000

    Merge branch 'dev' into 'master'
    
    Dev
    
    See merge request jat4625/cs329e-idb!2

commit 978df262617a6f39d552399dd26aea80c7dd40d0
Merge: 81103b9 c11a088
Author: Jose Torres <jatorr98@gmail.com>
Date:   Tue Mar 19 01:53:25 2019 +0000

    Merge branch 'master' into 'dev'
    
    # Conflicts:
    #   static/css/custom.css
    #   templates/dog_breed.html
    #   templates/dogs.html
    #   templates/shelters.html

commit 81103b955e1af658667ca8ea3249ede6bcf5a31d
Author: jat4625 <jatorr98@gmail.com>
Date:   Mon Mar 18 20:49:31 2019 -0500

    removed odd artifacts

commit d127866bcc3ebbbb91e5875264bc1857082c0659
Author: jat4625 <jatorr98@gmail.com>
Date:   Mon Mar 18 20:31:44 2019 -0500

    added dev branch

commit fdc8e74c90fdc07575925c2005a2418eaa0ce6b1
Author: jat4625 <jatorr98@gmail.com>
Date:   Mon Mar 18 20:23:06 2019 -0500

    Bootstrap additions and configuration

commit c11a088e0dffc0433c5aa713197555a6f9ba3580
Author: jat4625 <jatorr98@gmail.com>
Date:   Sun Mar 17 23:11:20 2019 -0500

    added card carousels to data centric pages

commit 95937cd4502b5cc2a2c736ff842e14eb3b366b43
Author: Jose Torres <jatorr98@gmail.com>
Date:   Sun Mar 17 19:56:10 2019 +0000

    fixed deployment issue in app.yaml

commit dbd1ff8bd7696b43c609258289642c445d3bd6f8
Author: Sean Yu <seantyu@utexas.edu>
Date:   Sun Mar 17 03:19:10 2019 -0500

    Setup custom.css to for future bootstrap customization

commit 4b344dbe9110520d5533445949204647e45f4c07
Author: Sean Yu <seantyu@utexas.edu>
Date:   Sun Mar 17 00:39:38 2019 -0500

    Added titles back in

commit 8a21561e643c8d3f1c032fa29a72d905894d3270
Author: Sean Yu <seantyu@utexas.edu>
Date:   Sun Mar 17 00:32:21 2019 -0500

    Added a navbar and rewrote pages to use inheritance.

commit 168a7e5e4eae5dd251e648aebdbea04339ee7592
Author: Albert <albertsliang@yahoo.com>
Date:   Sat Mar 16 13:38:46 2019 -0500

    Added titles to pages

commit b5ec352d7cab175f3b5dcba2e7b9470965ae161a
Author: Sean Yu <seantyu@utexas.edu>
Date:   Fri Mar 15 12:19:30 2019 -0500

    remove .idea and update .gitignore

commit 304b3709910240723e0634a846cbac303792d163
Author: jat4625 <jatorr98@gmail.com>
Date:   Fri Mar 15 11:49:28 2019 -0500

    refactored main2.py

commit c7e11a4720157cde153f9995790f39abac42a76d
Author: jat4625 <jatorr98@gmail.com>
Date:   Fri Mar 15 11:35:15 2019 -0500

    added .idea folder to gitignore

commit 0968c2c50561d317c726a4ff0a0eea8989ee9339
Author: Jose Torres <jatorr98@gmail.com>
Date:   Fri Mar 15 16:31:52 2019 +0000

    Add new file

commit 45347300750dff77478e5228a3195974ec2f98ee
Author: Jose Torres <jatorr98@gmail.com>
Date:   Fri Mar 15 16:31:20 2019 +0000

    Add new file

commit 95790f6e1e2cb4003256b8c46e6da8bf49b4ebd9
Author: jat4625 <jatorr98@gmail.com>
Date:   Fri Mar 15 11:24:32 2019 -0500

    fixed file names

commit 7db1e4d78f2a3626e9ff21e73f9e18f6df9f1e60
Author: jat4625 <jatorr98@gmail.com>
Date:   Fri Mar 15 11:11:21 2019 -0500

    renames files to fit the dog shelter theme and removed main1.py

commit 64172fbab4ca2121a9e19cbb87fa8613b610575f
Merge: 9f8378e 4241309
Author: jat4625 <jatorr98@gmail.com>
Date:   Thu Mar 14 11:05:22 2019 -0500

    Merge branch 'master' of https://gitlab.com/jat4625/cs329e-idb

commit 9f8378ebb53c4887497f41feb1ec02eee77f8f69
Author: jat4625 <jatorr98@gmail.com>
Date:   Thu Mar 14 11:04:41 2019 -0500

    created tutorial files

commit 42413093539bb190c002e7b220f5ed0c9708ae7a
Author: Jose Torres <jatorr98@gmail.com>
Date:   Wed Mar 13 23:38:36 2019 +0000

    Add new directory

commit 57293779a9ff93efa7b8100e9d9d857b90529422
Author: Jose Torres <jatorr98@gmail.com>
Date:   Wed Mar 13 23:38:26 2019 +0000

    Add new directory

commit 83226eaec285e3c376775a166806f5f5552b7ab2
Author: Jose Torres <jatorr98@gmail.com>
Date:   Wed Mar 13 23:38:09 2019 +0000

    Delete .gitkeep

commit 03cec21e833584fa878586d9ac78a4b2d9c12924
Author: Jose Torres <jatorr98@gmail.com>
Date:   Wed Mar 13 21:50:57 2019 +0000

    Add new directory

commit 0be57ac830823dabd647e7a97e67324d48a9ce80
Author: Jose Torres <jatorr98@gmail.com>
Date:   Wed Mar 13 21:50:47 2019 +0000

    Add new directory

commit 4e4dd0fad0741b37b0b670d8193248c1082bcfd4
Author: Jose Torres <jatorr98@gmail.com>
Date:   Wed Mar 13 21:50:37 2019 +0000

    Add new directory

commit 30b5435b719a338096548d4ee60fb1641554d0f4
Author: jat4625 <jatorr98@gmail.com>
Date:   Wed Mar 13 16:47:11 2019 -0500

    second attempt to add directories

commit 864f96e6c36dc258a38ba6ac74d0a69f6c1adf23
Author: jat4625 <jatorr98@gmail.com>
Date:   Wed Mar 13 16:41:05 2019 -0500

    added new directories

commit 3a2c434d5b055297f8bbf0e1309953b5bb0e800f
Author: Jose Torres <jatorr98@gmail.com>
Date:   Wed Mar 13 14:32:43 2019 +0000

    Add README.md
