{
  "Jose Torres": {
    "commits": 0,
    "issues": 0,
    "unit_tests": 0,
    "img_url": "jose_torres2.jpg",
    "major": "Human Biology",
    "graduation": "Spring 2020",
    "desc": "Does synthetic biology research and volunteering",
    "responsibilities": "Backend"
  },
  "Sean Yu": {
    "commits": 0,
    "issues": 0,
    "unit_tests": 0,
    "img_url": "sean_yu2.jpg",
    "major": "Chemical Engineering",
    "graduation": "Spring 2021",
    "desc": "Likes Judo, video games, and fishkeeping",
    "responsibilities": "Frontend / Data collection"
  },
  "Albert Liang": {
    "commits": 0,
    "issues": 0,
    "unit_tests": 0,
    "img_url": "albert_liang2.jpg",
    "major": "Math",
    "graduation": "Spring 2020",
    "desc": "Likes working out and playing video games",
    "responsibilities": "Frontend"
  },
  "Jungwoo Cho": {
    "commits": 0,
    "issues": 0,
    "unit_tests": 0,
    "img_url": "jungwoo_cho2.jpg",
    "major": "Petroleum Engineering",
    "graduation": "Spring 2020",
    "desc": "Likes sparkling water, cilantro, and pineapple on pizza.",
    "responsibilities": "Backend / Wiki"
  }
}
